{
  "repo": {
    "timestamp": 1544517548865,
    "version": 18,
    "name": "One Wish",
    "icon": "default-repo-icon.png",
    "address": "https://gitlab.com/kkuang70/oneworld/raw/master/fdroid/repo",
    "description": "s",
    "mirrors": [
      "https://gitlab.com/kkuang70/oneworld/raw/master/fdroid/repo/repo"
    ]
  },
  "requests": {
    "install": [],
    "uninstall": []
  },
  "apps": [
    {
      "suggestedVersionCode": "1",
      "license": "Unknown",
      "name": "HelloWorld",
      "added": 1544516088416,
      "icon": "com.example.kevinkuang.helloworld.1.png",
      "packageName": "com.example.kevinkuang.helloworld",
      "lastUpdated": 1544516093758
    }
  ],
  "packages": {
    "com.example.kevinkuang.helloworld": [
      {
        "added": 1544516093758,
        "apkName": "app-debug.apk",
        "hash": "91389fb36d8c3a9ab897c42f9dd670d11fa6617d23a6bbbaa7153ec42e579b58",
        "hashType": "sha256",
        "minSdkVersion": "15",
        "packageName": "com.example.kevinkuang.helloworld",
        "sig": "8aa04ef122b85176d9bf2c0c80aa84e1",
        "size": 1652210,
        "targetSdkVersion": "28",
        "versionCode": 1,
        "versionName": "1.0"
      }
    ]
  }
}